A study on Australia Tourism Data
…
You can see the regions that has the highest total trips in each states thanks to the Circular barplot.

Time Series Analysis

train <- df %>%
  filter(year(Quarter)<= 2014)

model<-train %>% model(
  ets=ETS(Trips),arima=ARIMA(Trips)
)
model

## # A mable: 304 x 5
## # Key:     Region, State, Purpose [304]
##    Region       State           Purpose  ets       arima                   
##    <chr>        <chr>           <chr>    <model>   <model>                 
##  1 Adelaide     South Australia Business <ETS(M,N~ <ARIMA(0,0,0)(1,0,1)[4]~
##  2 Adelaide     South Australia Holiday  <ETS(M,N~ <ARIMA(0,0,0)(2,0,0)[4]~
##  3 Adelaide     South Australia Other    <ETS(M,A~ <ARIMA(0,1,1) w/ drift> 
##  4 Adelaide     South Australia Visiting <ETS(A,N~ <ARIMA(0,0,0)(1,0,1)[4]~
##  5 Adelaide Hi~ South Australia Business <ETS(A,N~ <ARIMA(1,0,0) w/ mean>  
##  6 Adelaide Hi~ South Australia Holiday  <ETS(A,N~ <ARIMA(0,0,0) w/ mean>  
##  7 Adelaide Hi~ South Australia Other    <ETS(A,N~ <ARIMA(0,0,1)(1,0,0)[4]~
##  8 Adelaide Hi~ South Australia Visiting <ETS(M,A~ <ARIMA(0,0,0) w/ mean>  
##  9 Alice Sprin~ Northern Terri~ Business <ETS(A,N~ <ARIMA(0,0,0) w/ mean>  
## 10 Alice Sprin~ Northern Terri~ Holiday  <ETS(M,N~ <ARIMA(0,0,0)(0,1,2)[4]~
## # ... with 294 more rows
…
